uP/uP_tb.vcd
$date
	Sun Nov 22 23:18:32 2020
$end
$version
	Icarus Verilog
$end
$timescale
	1ps
$end
$scope module testbench $end
$var wire 4 ! data_bus [3:0] $end
$var wire 1 " z_flag $end
$var wire 8 # program_byte [7:0] $end
$var wire 1 $ phase $end
$var wire 4 % oprnd [3:0] $end
$var wire 4 & instr [3:0] $end
$var wire 1 ' c_flag $end
$var wire 12 ( address_RAM [11:0] $end
$var wire 4 ) accu [3:0] $end
$var wire 12 * PC [11:0] $end
$var wire 4 + FF_out [3:0] $end
$var reg 1 , clock $end
$var reg 4 - pushbuttons [3:0] $end
$var reg 1 . reset $end
$var integer 32 / immediateDelay [31:0] $end
$var integer 32 0 jumpDelay [31:0] $end
$var integer 32 1 memoryDelay [31:0] $end
$var integer 32 2 nota [31:0] $end
$scope module uPmodule $end
$var wire 1 , clock $end
$var wire 4 3 data_bus [3:0] $end
$var wire 4 4 pushbuttons [3:0] $end
$var wire 1 . reset $end
$var wire 1 " z_flag $end
$var wire 1 5 weRAM $end
$var wire 3 6 sel [2:0] $end
$var wire 8 7 program_byte [7:0] $end
$var wire 1 $ phase $end
$var wire 4 8 oprnd [3:0] $end
$var wire 1 9 oeOprnd $end
$var wire 1 : oeIN $end
$var wire 1 ; oeALU $end
$var wire 1 < loadPC $end
$var wire 1 = loadOut $end
$var wire 1 > loadFlags $end
$var wire 1 ? loadA $end
$var wire 4 @ instr [3:0] $end
$var wire 1 A incPC $end
$var wire 13 B decode_out [12:0] $end
$var wire 7 C decode_in [6:0] $end
$var wire 1 D csRAM $end
$var wire 1 ' c_flag $end
$var wire 4 E alu_out [3:0] $end
$var wire 12 F address_RAM [11:0] $end
$var wire 4 G accu [3:0] $end
$var wire 1 H Z $end
$var wire 12 I PC [11:0] $end
$var wire 4 J FF_out [3:0] $end
$var wire 1 K C $end
$scope module BusFetch_up $end
$var wire 4 L data_bus [3:0] $end
$var wire 1 9 oeOprnd $end
$var wire 4 M oprnd [3:0] $end
$upscope $end
$scope module accu_up $end
$var wire 1 , clock $end
$var wire 1 ? loadA $end
$var wire 1 . reset $end
$var wire 4 N alu_out [3:0] $end
$var reg 4 O accu [3:0] $end
$upscope $end
$scope module alu_up $end
$var wire 1 H Z $end
$var wire 4 P accu [3:0] $end
$var wire 4 Q data_bus [3:0] $end
$var wire 3 R sel [2:0] $end
$var wire 4 S alu_out [3:0] $end
$var wire 1 K C $end
$var reg 5 T q [4:0] $end
$upscope $end
$scope module busAlu_up $end
$var wire 4 U alu_out [3:0] $end
$var wire 4 V data_bus [3:0] $end
$var wire 1 ; oeALU $end
$upscope $end
$scope module bus_pushbuttons_up $end
$var wire 4 W data_bus [3:0] $end
$var wire 1 : oeIN $end
$var wire 4 X pushbuttons [3:0] $end
$upscope $end
$scope module decode_up $end
$var wire 7 Y decode_in [6:0] $end
$var reg 13 Z decode_out [12:0] $end
$upscope $end
$scope module fetch_up $end
$var wire 1 , clock $end
$var wire 1 [ no_phase $end
$var wire 1 . reset $end
$var wire 8 \ program_byte [7:0] $end
$var reg 4 ] instr [3:0] $end
$var reg 4 ^ oprnd [3:0] $end
$upscope $end
$scope module flags_up $end
$var wire 1 K C $end
$var wire 1 H Z $end
$var wire 1 , clock $end
$var wire 1 > loadFlags $end
$var wire 1 . reset $end
$var reg 1 ' c_flag $end
$var reg 1 " z_flag $end
$upscope $end
$scope module output_up $end
$var wire 1 , clock $end
$var wire 4 _ data_bus [3:0] $end
$var wire 1 = loadOut $end
$var wire 1 . reset $end
$var reg 4 ` FF_out [3:0] $end
$upscope $end
$scope module phase_up $end
$var wire 1 , clock $end
$var wire 1 . reset $end
$var reg 1 $ phase $end
$upscope $end
$scope module programcounter_up $end
$var wire 12 a address_RAM [11:0] $end
$var wire 1 , clock $end
$var wire 1 A incPC $end
$var wire 1 < loadPC $end
$var wire 1 . reset $end
$var reg 12 b PC [11:0] $end
$upscope $end
$scope module ram_up $end
$var wire 12 c address_RAM [11:0] $end
$var wire 1 D csRAM $end
$var wire 4 d data_bus [3:0] $end
$var wire 1 5 weRAM $end
$var reg 4 e databus [3:0] $end
$upscope $end
$scope module rom_up $end
$var wire 12 f PC [11:0] $end
$var wire 8 g program_byte [7:0] $end
$upscope $end
$upscope $end
$upscope $end
$enddefinitions $end
#0
$dumpvars
bx g
bx f
bx e
bx d
bx c
bx b
bx a
bx `
bx _
bx ^
bx ]
bx \
x[
bx Z
bx Y
b110 X
bx W
bx V
bx U
bx T
bx S
bx R
bx Q
bx P
bx O
bx N
bx M
bx L
xK
bx J
bx I
xH
bx G
bx F
bx E
xD
bx C
bx B
xA
bx @
x?
x>
x=
x<
x;
x:
x9
bx 8
bx 7
bx 6
x5
b110 4
bx 3
b0 2
b100010100 1
b1010010000 0
b10000 /
0.
b110 -
0,
bx +
bx *
bx )
bx (
x'
bx &
bx %
x$
bx #
x"
bx !
$end
#2
b0 !
b0 3
b0 L
b0 Q
b0 V
b0 W
b0 _
b0 d
0=
09
0:
1;
05
0D
b0 6
b0 R
0>
0?
0<
1A
b1000000001000 B
b1000000001000 Z
1H
b0 E
b0 N
b0 S
b0 U
0K
b1001111 #
b1001111 7
b1001111 \
b1001111 g
1[
b0 T
b0 *
b0 I
b0 b
b0 f
b0 &
b0 @
b0 ]
b1001111 (
b1001111 F
b1001111 a
b1001111 c
b0 %
b0 8
b0 M
b0 ^
0$
0'
b0 C
b0 Y
0"
b0 )
b0 G
b0 O
b0 P
b0 +
b0 J
b0 `
1.
#3
0.
#5
0H
b1111 E
b1111 N
b1111 S
b1111 U
b1111 T
b1111 !
b1111 3
b1111 L
b1111 Q
b1111 V
b1111 W
b1111 _
b1111 d
19
0;
b10 6
b10 R
1>
1?
0A
b11010000010 B
b11010000010 Z
0[
b11011111 #
b11011111 7
b11011111 \
b11011111 g
1$
b100001 C
b100001 Y
b100 &
b100 @
b100 ]
b111111011111 (
b111111011111 F
b111111011111 a
b111111011111 c
b1111 %
b1111 8
b1111 M
b1111 ^
b1 *
b1 I
b1 b
b1 f
1,
#10
0,
#15
09
1;
b0 6
b0 R
0>
0?
1A
b1000000001000 B
b1000000001000 Z
1[
b100000 C
b100000 Y
0$
b1111 )
b1111 G
b1111 O
b1111 P
1,
#16
b1000110 2
#20
0,
#25
1=
0A
b1001 B
b1001 Z
0[
b111101010001 (
b111101010001 F
b111101010001 a
b111101010001 c
b1010001 #
b1010001 7
b1010001 \
b1010001 g
1$
b1101001 C
b1101001 Y
b1101 &
b1101 @
b1101 ]
b10 *
b10 I
b10 b
b10 f
1,
#30
0,
#35
0=
1A
b1000000001000 B
b1000000001000 Z
1[
b1101000 C
b1101000 Y
0$
b1111 +
b1111 J
b1111 `
1,
#36
b1100111 2
#40
0,
#45
b110 E
b110 N
b110 S
b110 U
b110 T
b110 !
b110 3
b110 L
b110 Q
b110 V
b110 W
b110 _
b110 d
1:
0;
b10 6
b10 R
1>
1?
0A
b11010000100 B
b11010000100 Z
0[
b1000000 #
b1000000 7
b1000000 \
b1000000 g
1$
b101001 C
b101001 Y
b101 &
b101 @
b101 ]
b101000000 (
b101000000 F
b101000000 a
b101000000 c
b1 %
b1 8
b1 M
b1 ^
b11 *
b11 I
b11 b
b11 f
1,
#50
0,
#55
0:
1;
b0 6
b0 R
0>
0?
1A
b1000000001000 B
b1000000001000 Z
1[
b101000 C
b101000 Y
0$
b110 )
b110 G
b110 O
b110 P
1,
#56
b10001000 2
#60
0,
#65
1H
b0 E
b0 N
b0 S
b0 U
b0 T
b0 !
b0 3
b0 L
b0 Q
b0 V
b0 W
b0 _
b0 d
19
0;
b10 6
b10 R
1>
1?
0A
b11010000010 B
b11010000010 Z
0[
b1001111 #
b1001111 7
b1001111 \
b1001111 g
1$
b100001 C
b100001 Y
b100 &
b100 @
b100 ]
b1001111 (
b1001111 F
b1001111 a
b1001111 c
b0 %
b0 8
b0 M
b0 ^
b100 *
b100 I
b100 b
b100 f
1,
#70
0,
#75
09
1;
b0 6
b0 R
0>
0?
1A
b1000000001000 B
b1000000001000 Z
1[
0$
b100010 C
b100010 Y
1"
b0 )
b0 G
b0 O
b0 P
1,
#80
0,
#85
0H
b1111 E
b1111 N
b1111 S
b1111 U
b1111 T
b1111 !
b1111 3
b1111 L
b1111 Q
b1111 V
b1111 W
b1111 _
b1111 d
19
0;
b10 6
b10 R
1>
1?
0A
b11010000010 B
b11010000010 Z
0[
b10101010 #
b10101010 7
b10101010 \
b10101010 g
b100011 C
b100011 Y
1$
b111110101010 (
b111110101010 F
b111110101010 a
b111110101010 c
b1111 %
b1111 8
b1111 M
b1111 ^
b101 *
b101 I
b101 b
b101 f
1,
#90
0,
#95
09
1;
b0 6
b0 R
0>
0?
1A
b1000000001000 B
b1000000001000 Z
1[
0$
b100000 C
b100000 Y
0"
b1111 )
b1111 G
b1111 O
b1111 P
1,
#100
0,
#105
b1001 E
b1001 N
b1001 S
b1001 U
1K
b1010 !
b1010 3
b1010 L
b1010 Q
b1010 V
b1010 W
b1010 _
b1010 d
b11001 T
19
0;
b11 6
b11 R
1>
1?
0A
b11011000010 B
b11011000010 Z
0[
b101000 #
b101000 7
b101000 \
b101000 g
1$
b1010001 C
b1010001 Y
b1010 &
b1010 @
b1010 ]
b101000101000 (
b101000101000 F
b101000101000 a
b101000101000 c
b1010 %
b1010 8
b1010 M
b1010 ^
b110 *
b110 I
b110 b
b110 f
1,
#110
0,
#115
0K
b1001 !
b1001 3
b1001 L
b1001 Q
b1001 V
b1001 W
b1001 _
b1001 d
09
1;
b0 6
b0 R
0>
0?
1A
b1000000001000 B
b1000000001000 Z
b1001 E
b1001 N
b1001 S
b1001 U
1[
b1001 T
0$
b1010100 C
b1010100 Y
1'
b1001 )
b1001 G
b1001 O
b1001 P
1,
#116
b10101001 2
#120
0,
#125
b1 E
b1 N
b1 S
b1 U
b1000 !
b1000 3
b1000 L
b1000 Q
b1000 V
b1000 W
b1000 _
b1000 d
b1 T
19
0;
b1 6
b1 R
1>
0A
b1001000010 B
b1001000010 Z
0[
b1001010 #
b1001010 7
b1001010 \
b1001010 g
1$
b10101 C
b10101 Y
b10 &
b10 @
b10 ]
b100001001010 (
b100001001010 F
b100001001010 a
b100001001010 c
b1000 %
b1000 8
b1000 M
b1000 ^
b111 *
b111 I
b111 b
b111 f
1,
#130
0,
#135
b1001 E
b1001 N
b1001 S
b1001 U
b1001 !
b1001 3
b1001 L
b1001 Q
b1001 V
b1001 W
b1001 _
b1001 d
b1001 T
09
1;
b0 6
b0 R
0>
1A
b1000000001000 B
b1000000001000 Z
1[
0$
b10000 C
b10000 Y
0'
1,
#136
b11001010 2
#140
0,
#145
b1010 E
b1010 N
b1010 S
b1010 U
b1010 T
b1010 !
b1010 3
b1010 L
b1010 Q
b1010 V
b1010 W
b1010 _
b1010 d
19
0;
b10 6
b10 R
1>
1?
0A
b11010000010 B
b11010000010 Z
0[
b101100 #
b101100 7
b101100 \
b101100 g
1$
b100001 C
b100001 Y
b100 &
b100 @
b100 ]
b101000101100 (
b101000101100 F
b101000101100 a
b101000101100 c
b1010 %
b1010 8
b1010 M
b1010 ^
b1000 *
b1000 I
b1000 b
b1000 f
1,
#150
0,
#155
09
1;
b0 6
b0 R
0>
0?
1A
b1000000001000 B
b1000000001000 Z
1[
b100000 C
b100000 Y
0$
b1010 )
b1010 G
b1010 O
b1010 P
1,
#160
0,
#165
1K
b1110 E
b1110 N
b1110 S
b1110 U
b1100 !
b1100 3
b1100 L
b1100 Q
b1100 V
b1100 W
b1100 _
b1100 d
b11110 T
19
0;
b1 6
b1 R
1>
0A
b1001000010 B
b1001000010 Z
0[
b10100001 #
b10100001 7
b10100001 \
b10100001 g
1$
b10001 C
b10001 Y
b10 &
b10 @
b10 ]
b110010100001 (
b110010100001 F
b110010100001 a
b110010100001 c
b1100 %
b1100 8
b1100 M
b1100 ^
b1001 *
b1001 I
b1001 b
b1001 f
1,
#170
0,
#175
b1010 E
b1010 N
b1010 S
b1010 U
0K
b1010 !
b1010 3
b1010 L
b1010 Q
b1010 V
b1010 W
b1010 _
b1010 d
b1010 T
09
1;
b0 6
b0 R
0>
1A
b1000000001000 B
b1000000001000 Z
1[
0$
b10100 C
b10100 Y
1'
1,
#176
b11101011 2
#180
0,
#185
b1011 E
b1011 N
b1011 S
b1011 U
0K
b1 !
b1 3
b1 L
b1 Q
b1 V
b1 W
b1 _
b1 d
b1011 T
19
0;
b11 6
b11 R
1>
1?
0A
b11011000010 B
b11011000010 Z
0[
b11101011 #
b11101011 7
b11101011 \
b11101011 g
1$
b1010101 C
b1010101 Y
b1010 &
b1010 @
b1010 ]
b111101011 (
b111101011 F
b111101011 a
b111101011 c
b1 %
b1 8
b1 M
b1 ^
b1010 *
b1010 I
b1010 b
b1010 f
1,
#190
0,
#195
b1011 !
b1011 3
b1011 L
b1011 Q
b1011 V
b1011 W
b1011 _
b1011 d
09
1;
b0 6
b0 R
0>
0?
1A
b1000000001000 B
b1000000001000 Z
b1011 E
b1011 N
b1011 S
b1011 U
1[
b1011 T
0$
b1010000 C
b1010000 Y
0'
b1011 )
b1011 G
b1011 O
b1011 P
1,
#196
b100001100 2
#200
0,
#205
b100 E
b100 N
b100 S
b100 U
b1011 !
b1011 3
b1011 L
b1011 Q
b1011 V
b1011 W
b1011 _
b1011 d
b100 T
19
0;
b100 6
b100 R
1>
1?
0A
b11100000010 B
b11100000010 Z
0[
b11010000 #
b11010000 7
b11010000 \
b11010000 g
1$
b1110001 C
b1110001 Y
b1110 &
b1110 @
b1110 ]
b101111010000 (
b101111010000 F
b101111010000 a
b101111010000 c
b1011 %
b1011 8
b1011 M
b1011 ^
b1011 *
b1011 I
b1011 b
b1011 f
1,
#210
0,
#215
b100 !
b100 3
b100 L
b100 Q
b100 V
b100 W
b100 _
b100 d
09
1;
b0 6
b0 R
0>
0?
1A
b1000000001000 B
b1000000001000 Z
b100 E
b100 N
b100 S
b100 U
1[
b100 T
b1110000 C
b1110000 Y
0$
b100 )
b100 G
b100 O
b100 P
1,
#216
b101001110 2
#220
0,
#225
1=
0A
b1001 B
b1001 Z
0[
b1010000 #
b1010000 7
b1010000 \
b1010000 g
1$
b1101001 C
b1101001 Y
b1101 &
b1101 @
b1101 ]
b1010000 (
b1010000 F
b1010000 a
b1010000 c
b0 %
b0 8
b0 M
b0 ^
b1100 *
b1100 I
b1100 b
b1100 f
1,
#230
0,
#235
0=
1A
b1000000001000 B
b1000000001000 Z
1[
b1101000 C
b1101000 Y
0$
b100 +
b100 J
b100 `
1,
#236
b1110 -
b1110 4
b1110 X
b101101111 2
#240
0,
#245
b1110 E
b1110 N
b1110 S
b1110 U
b1110 T
b1110 !
b1110 3
b1110 L
b1110 Q
b1110 V
b1110 W
b1110 _
b1110 d
1:
0;
b10 6
b10 R
1>
1?
0A
b11010000100 B
b11010000100 Z
0[
b1110000 (
b1110000 F
b1110000 a
b1110000 c
b1110000 #
b1110000 7
b1110000 \
b1110000 g
1$
b101001 C
b101001 Y
b101 &
b101 @
b101 ]
b1101 *
b1101 I
b1101 b
b1101 f
1,
#250
0,
#255
0:
1;
b0 6
b0 R
0>
0?
1A
b1000000001000 B
b1000000001000 Z
1[
b101000 C
b101000 Y
0$
b1110 )
b1110 G
b1110 O
b1110 P
1,
#256
b110010000 2
#260
0,
#265
b1110 !
b1110 3
b1110 L
b1110 Q
b1110 V
b1110 W
b1110 _
b1110 d
15
1D
b1000000111000 B
b1000000111000 Z
0[
b0 (
b0 F
b0 a
b0 c
b0 #
b0 7
b0 \
b0 g
1$
b111001 C
b111001 Y
b111 &
b111 @
b111 ]
b1110 *
b1110 I
b1110 b
b1110 f
1,
#270
0,
#275
05
0D
b1000000001000 B
b1000000001000 Z
b1001111 (
b1001111 F
b1001111 a
b1001111 c
b1001111 #
b1001111 7
b1001111 \
b1001111 g
1[
b1111 *
b1111 I
b1111 b
b1111 f
b111000 C
b111000 Y
0$
1,
#280
0,
#285
b1111 E
b1111 N
b1111 S
b1111 U
b1111 T
b1111 !
b1111 3
b1111 L
b1111 Q
b1111 V
b1111 W
b1111 _
b1111 d
19
0;
b10 6
b10 R
1>
1?
0A
b11010000010 B
b11010000010 Z
0[
b1110001 #
b1110001 7
b1110001 \
b1110001 g
1$
b100001 C
b100001 Y
b100 &
b100 @
b100 ]
b111101110001 (
b111101110001 F
b111101110001 a
b111101110001 c
b1111 %
b1111 8
b1111 M
b1111 ^
b10000 *
b10000 I
b10000 b
b10000 f
1,
#290
0,
#295
09
1;
b0 6
b0 R
0>
0?
1A
b1000000001000 B
b1000000001000 Z
1[
b100000 C
b100000 Y
0$
b1111 )
b1111 G
b1111 O
b1111 P
1,
#300
0,
#305
b1111 !
b1111 3
b1111 L
b1111 Q
b1111 V
b1111 W
b1111 _
b1111 d
15
1D
b1000000111000 B
b1000000111000 Z
0[
b10001 #
b10001 7
b10001 \
b10001 g
1$
b111001 C
b111001 Y
b111 &
b111 @
b111 ]
b100010001 (
b100010001 F
b100010001 a
b100010001 c
b1 %
b1 8
b1 M
b1 ^
b10001 *
b10001 I
b10001 b
b10001 f
1,
#310
0,
#315
05
0D
b1000000001000 B
b1000000001000 Z
b101001010 (
b101001010 F
b101001010 a
b101001010 c
b1001010 #
b1001010 7
b1001010 \
b1001010 g
1[
b10010 *
b10010 I
b10010 b
b10010 f
b111000 C
b111000 Y
0$
1,
#320
0,
#325
b1010 E
b1010 N
b1010 S
b1010 U
b1010 T
b1010 !
b1010 3
b1010 L
b1010 Q
b1010 V
b1010 W
b1010 _
b1010 d
19
0;
b10 6
b10 R
1>
1?
0A
b11010000010 B
b11010000010 Z
0[
b1110010 #
b1110010 7
b1110010 \
b1110010 g
1$
b100001 C
b100001 Y
b100 &
b100 @
b100 ]
b101001110010 (
b101001110010 F
b101001110010 a
b101001110010 c
b1010 %
b1010 8
b1010 M
b1010 ^
b10011 *
b10011 I
b10011 b
b10011 f
1,
#330
0,
#335
09
1;
b0 6
b0 R
0>
0?
1A
b1000000001000 B
b1000000001000 Z
1[
b100000 C
b100000 Y
0$
b1010 )
b1010 G
b1010 O
b1010 P
1,
#340
0,
#345
b1010 !
b1010 3
b1010 L
b1010 Q
b1010 V
b1010 W
b1010 _
b1010 d
15
1D
b1000000111000 B
b1000000111000 Z
0[
b100010 #
b100010 7
b100010 \
b100010 g
1$
b111001 C
b111001 Y
b111 &
b111 @
b111 ]
b1000100010 (
b1000100010 F
b1000100010 a
b1000100010 c
b10 %
b10 8
b10 M
b10 ^
b10100 *
b10100 I
b10100 b
b10100 f
1,
#350
0,
#355
05
0D
b1000000001000 B
b1000000001000 Z
b1001000001 (
b1001000001 F
b1001000001 a
b1001000001 c
b1000001 #
b1000001 7
b1000001 \
b1000001 g
1[
b10101 *
b10101 I
b10101 b
b10101 f
b111000 C
b111000 Y
0$
1,
#360
0,
#365
b1 E
b1 N
b1 S
b1 U
b1 T
b1 !
b1 3
b1 L
b1 Q
b1 V
b1 W
b1 _
b1 d
19
0;
b10 6
b10 R
1>
1?
0A
b11010000010 B
b11010000010 Z
0[
b1110011 #
b1110011 7
b1110011 \
b1110011 g
1$
b100001 C
b100001 Y
b100 &
b100 @
b100 ]
b101110011 (
b101110011 F
b101110011 a
b101110011 c
b1 %
b1 8
b1 M
b1 ^
b10110 *
b10110 I
b10110 b
b10110 f
1,
#370
0,
#375
09
1;
b0 6
b0 R
0>
0?
1A
b1000000001000 B
b1000000001000 Z
1[
b100000 C
b100000 Y
0$
b1 )
b1 G
b1 O
b1 P
1,
#380
0,
#385
b1 !
b1 3
b1 L
b1 Q
b1 V
b1 W
b1 _
b1 d
15
1D
b1000000111000 B
b1000000111000 Z
0[
b110011 #
b110011 7
b110011 \
b110011 g
1$
b111001 C
b111001 Y
b111 &
b111 @
b111 ]
b1100110011 (
b1100110011 F
b1100110011 a
b1100110011 c
b11 %
b11 8
b11 M
b11 ^
b10111 *
b10111 I
b10111 b
b10111 f
1,
#390
0,
#395
05
0D
b1000000001000 B
b1000000001000 Z
b1101100000 (
b1101100000 F
b1101100000 a
b1101100000 c
b1100000 #
b1100000 7
b1100000 \
b1100000 g
1[
b11000 *
b11000 I
b11000 b
b11000 f
b111000 C
b111000 Y
0$
1,
#400
0,
#405
0H
b1110 E
b1110 N
b1110 S
b1110 U
b1110 T
b1110 !
b1110 3
b1110 L
b1110 Q
b1110 V
b1110 W
b1110 _
b1110 d
b1110 e
0;
1D
b10 6
b10 R
1>
1?
b1011010100000 B
b1011010100000 Z
0[
b0 #
b0 7
b0 \
b0 g
1$
b110001 C
b110001 Y
b110 &
b110 @
b110 ]
b0 (
b0 F
b0 a
b0 c
b0 %
b0 8
b0 M
b0 ^
b11001 *
b11001 I
b11001 b
b11001 f
1,
#410
0,
#415
1;
0D
b0 6
b0 R
0>
0?
b1000000001000 B
b1000000001000 Z
0H
b1110 E
b1110 N
b1110 S
b1110 U
b1110 T
b1110 !
b1110 3
b1110 L
b1110 Q
b1110 V
b1110 W
b1110 _
b1110 d
bx e
b1100001 (
b1100001 F
b1100001 a
b1100001 c
b1100001 #
b1100001 7
b1100001 \
b1100001 g
1[
b11010 *
b11010 I
b11010 b
b11010 f
b110000 C
b110000 Y
0$
b1110 )
b1110 G
b1110 O
b1110 P
1,
#420
0,
#425
b1111 E
b1111 N
b1111 S
b1111 U
b1111 T
b1111 !
b1111 3
b1111 L
b1111 Q
b1111 V
b1111 W
b1111 _
b1111 d
b1111 e
0;
1D
b10 6
b10 R
1>
1?
b1011010100000 B
b1011010100000 Z
0[
b10001 #
b10001 7
b10001 \
b10001 g
b110001 C
b110001 Y
1$
b100010001 (
b100010001 F
b100010001 a
b100010001 c
b1 %
b1 8
b1 M
b1 ^
b11011 *
b11011 I
b11011 b
b11011 f
1,
#430
0,
#435
1;
0D
b0 6
b0 R
0>
0?
b1000000001000 B
b1000000001000 Z
0H
b1111 E
b1111 N
b1111 S
b1111 U
b1111 T
b1111 !
b1111 3
b1111 L
b1111 Q
b1111 V
b1111 W
b1111 _
b1111 d
bx e
b101100010 (
b101100010 F
b101100010 a
b101100010 c
b1100010 #
b1100010 7
b1100010 \
b1100010 g
1[
b11100 *
b11100 I
b11100 b
b11100 f
b110000 C
b110000 Y
0$
b1111 )
b1111 G
b1111 O
b1111 P
1,
#440
0,
#445
b1010 E
b1010 N
b1010 S
b1010 U
b1010 T
b1010 !
b1010 3
b1010 L
b1010 Q
b1010 V
b1010 W
b1010 _
b1010 d
b1010 e
0;
1D
b10 6
b10 R
1>
1?
b1011010100000 B
b1011010100000 Z
0[
b100010 #
b100010 7
b100010 \
b100010 g
b110001 C
b110001 Y
1$
b1000100010 (
b1000100010 F
b1000100010 a
b1000100010 c
b10 %
b10 8
b10 M
b10 ^
b11101 *
b11101 I
b11101 b
b11101 f
1,
#450
0,
#455
1;
0D
b0 6
b0 R
0>
0?
b1000000001000 B
b1000000001000 Z
0H
b1010 E
b1010 N
b1010 S
b1010 U
b1010 T
b1010 !
b1010 3
b1010 L
b1010 Q
b1010 V
b1010 W
b1010 _
b1010 d
bx e
b1001100011 (
b1001100011 F
b1001100011 a
b1001100011 c
b1100011 #
b1100011 7
b1100011 \
b1100011 g
1[
b11110 *
b11110 I
b11110 b
b11110 f
b110000 C
b110000 Y
0$
b1010 )
b1010 G
b1010 O
b1010 P
1,
#460
0,
#465
b1 E
b1 N
b1 S
b1 U
b1 T
b1 !
b1 3
b1 L
b1 Q
b1 V
b1 W
b1 _
b1 d
b1 e
0;
1D
b10 6
b10 R
1>
1?
b1011010100000 B
b1011010100000 Z
0[
b110011 #
b110011 7
b110011 \
b110011 g
b110001 C
b110001 Y
1$
b1100110011 (
b1100110011 F
b1100110011 a
b1100110011 c
b11 %
b11 8
b11 M
b11 ^
b11111 *
b11111 I
b11111 b
b11111 f
1,
#470
0,
#475
1;
0D
b0 6
b0 R
0>
0?
b1000000001000 B
b1000000001000 Z
0H
b1 E
b1 N
b1 S
b1 U
b1 T
b1 !
b1 3
b1 L
b1 Q
b1 V
b1 W
b1 _
b1 d
bx e
b1101001010 (
b1101001010 F
b1101001010 a
b1101001010 c
b1001010 #
b1001010 7
b1001010 \
b1001010 g
1[
b100000 *
b100000 I
b100000 b
b100000 f
b110000 C
b110000 Y
0$
b1 )
b1 G
b1 O
b1 P
1,
#476
b111100000 2
#480
0,
#485
0H
b1010 E
b1010 N
b1010 S
b1010 U
b1010 T
b1010 !
b1010 3
b1010 L
b1010 Q
b1010 V
b1010 W
b1010 _
b1010 d
19
0;
b10 6
b10 R
1>
1?
0A
b11010000010 B
b11010000010 Z
0[
b11110010 #
b11110010 7
b11110010 \
b11110010 g
1$
b100001 C
b100001 Y
b100 &
b100 @
b100 ]
b101011110010 (
b101011110010 F
b101011110010 a
b101011110010 c
b1010 %
b1010 8
b1010 M
b1010 ^
b100001 *
b100001 I
b100001 b
b100001 f
1,
#490
0,
#495
09
1;
b0 6
b0 R
0>
0?
1A
b1000000001000 B
b1000000001000 Z
1[
b100000 C
b100000 Y
0$
b1010 )
b1010 G
b1010 O
b1010 P
1,
#500
0,
#505
b101 E
b101 N
b101 S
b101 U
b1010 !
b1010 3
b1010 L
b1010 Q
b1010 V
b1010 W
b1010 _
b1010 d
b1010 e
b101 T
0;
1D
b100 6
b100 R
1>
1?
b1011100100000 B
b1011100100000 Z
0[
b100010 #
b100010 7
b100010 \
b100010 g
1$
b1111001 C
b1111001 Y
b1111 &
b1111 @
b1111 ]
b1000100010 (
b1000100010 F
b1000100010 a
b1000100010 c
b10 %
b10 8
b10 M
b10 ^
b100010 *
b100010 I
b100010 b
b100010 f
1,
#510
0,
#515
1;
0D
b0 6
b0 R
0>
0?
b1000000001000 B
b1000000001000 Z
b101 !
b101 3
b101 L
b101 Q
b101 V
b101 W
b101 _
b101 d
bx e
b101 E
b101 N
b101 S
b101 U
b1001001111 (
b1001001111 F
b1001001111 a
b1001001111 c
b1001111 #
b1001111 7
b1001111 \
b1001111 g
1[
b101 T
b100011 *
b100011 I
b100011 b
b100011 f
b1111000 C
b1111000 Y
0$
b101 )
b101 G
b101 O
b101 P
1,
#516
b1000001000 2
#520
0,
#525
b1111 E
b1111 N
b1111 S
b1111 U
b1111 T
b1111 !
b1111 3
b1111 L
b1111 Q
b1111 V
b1111 W
b1111 _
b1111 d
19
0;
b10 6
b10 R
1>
1?
0A
b11010000010 B
b11010000010 Z
0[
b10110011 #
b10110011 7
b10110011 \
b10110011 g
1$
b100001 C
b100001 Y
b100 &
b100 @
b100 ]
b111110110011 (
b111110110011 F
b111110110011 a
b111110110011 c
b1111 %
b1111 8
b1111 M
b1111 ^
b100100 *
b100100 I
b100100 b
b100100 f
1,
#530
0,
#535
09
1;
b0 6
b0 R
0>
0?
1A
b1000000001000 B
b1000000001000 Z
1[
b100000 C
b100000 Y
0$
b1111 )
b1111 G
b1111 O
b1111 P
1,
#540
0,
#545
1H
b0 E
b0 N
b0 S
b0 U
1K
b1 !
b1 3
b1 L
b1 Q
b1 V
b1 W
b1 _
b1 d
b1 e
b10000 T
0;
1D
b11 6
b11 R
1>
1?
b1011011100000 B
b1011011100000 Z
0[
b110011 #
b110011 7
b110011 \
b110011 g
1$
b1011001 C
b1011001 Y
b1011 &
b1011 @
b1011 ]
b1100110011 (
b1100110011 F
b1100110011 a
b1100110011 c
b11 %
b11 8
b11 M
b11 ^
b100101 *
b100101 I
b100101 b
b100101 f
1,
#550
0,
#555
1;
0D
b0 6
b0 R
0>
0?
b1000000001000 B
b1000000001000 Z
1H
b0 !
b0 3
b0 L
b0 Q
b0 V
b0 W
b0 _
b0 d
bx e
b0 E
b0 N
b0 S
b0 U
0K
b1101001000 (
b1101001000 F
b1101001000 a
b1101001000 c
b1001000 #
b1001000 7
b1001000 \
b1001000 g
1[
b0 T
b100110 *
b100110 I
b100110 b
b100110 f
0$
1'
b1011110 C
b1011110 Y
1"
b0 )
b0 G
b0 O
b0 P
1,
#556
b1000110000 2
#560
0,
#565
0H
b1000 E
b1000 N
b1000 S
b1000 U
b1000 T
b1000 !
b1000 3
b1000 L
b1000 Q
b1000 V
b1000 W
b1000 _
b1000 d
19
0;
b10 6
b10 R
1>
1?
0A
b11010000010 B
b11010000010 Z
0[
b110010 #
b110010 7
b110010 \
b110010 g
1$
b100111 C
b100111 Y
b100 &
b100 @
b100 ]
b100000110010 (
b100000110010 F
b100000110010 a
b100000110010 c
b1000 %
b1000 8
b1000 M
b1000 ^
b100111 *
b100111 I
b100111 b
b100111 f
1,
#570
0,
#575
09
1;
b0 6
b0 R
0>
0?
1A
b1000000001000 B
b1000000001000 Z
1[
0$
0'
b100000 C
b100000 Y
0"
b1000 )
b1000 G
b1000 O
b1000 P
1,
#580
0,
#585
1K
b1110 E
b1110 N
b1110 S
b1110 U
b1010 !
b1010 3
b1010 L
b1010 Q
b1010 V
b1010 W
b1010 _
b1010 d
b1010 e
b11110 T
0;
1D
b1 6
b1 R
1>
b1001001100000 B
b1001001100000 Z
0[
b100010 #
b100010 7
b100010 \
b100010 g
1$
b11001 C
b11001 Y
b11 &
b11 @
b11 ]
b1000100010 (
b1000100010 F
b1000100010 a
b1000100010 c
b10 %
b10 8
b10 M
b10 ^
b101000 *
b101000 I
b101000 b
b101000 f
1,
#590
0,
#595
1;
0D
b0 6
b0 R
0>
b1000000001000 B
b1000000001000 Z
0H
b1000 E
b1000 N
b1000 S
b1000 U
0K
b1000 T
b1000 !
b1000 3
b1000 L
b1000 Q
b1000 V
b1000 W
b1000 _
b1000 d
bx e
b1001001100 (
b1001001100 F
b1001001100 a
b1001001100 c
b1001100 #
b1001100 7
b1001100 \
b1001100 g
1[
b101001 *
b101001 I
b101001 b
b101001 f
0$
b11100 C
b11100 Y
1'
1,
#596
b1001000100 2
#600
0,
